time python3 runBenchmark.py min_pred_v2.bpl
Calling invariantFinder on min_pred_v2.bpl

Reading the Boogie program from /Users/timon/Education/masterthesis/benchmark/input/min_pred_v2.bpl
Annotating the Boogie program with invariants.

Found procedure min
Generated 89 invariants from templates
Generated 16 invariants from post-conditions
Adding invariants 105/105
Implementation of min verified completely

Procedure min verified completely with added invariants
Checking verfied invariants for redundancies

Generated 105 invariants
Generated 89 invariants from templates
Generated 16 invariants from post-condition mutation
Removed 49 invariants using Boogaloo
Removed 27 invariants using Boogie
Removed 26 invariants because of redundancies using Boogie
Writing the annotated program to /Users/timon/Education/masterthesis/benchmark/input/../output/annotated_min_pred_v2.bpl

real	0m6.387s
user	0m13.852s
sys	0m4.367s