time python3 runBenchmark.py binary_search.bpl
Copying configfile for binary_search.bpl
Calling invariantFinder on binary_search.bpl

Reading the Boogie program from /Users/timon/Education/masterthesis/benchmark/input/binary_search.bpl
Annotating the Boogie program with invariants.

Found procedure binary_search
Generated 288 invariants from templates
Generated 22464 invariants from post-conditions
Adding invariants 17001/22752
Implementation of binary_search verified completely

Procedure binary_search verified completely with added invariants
Checking verfied invariants for redundancies

Generated 22752 invariants
Generated 288 invariants from templates
Generated 22464 invariants from post-condition mutation
Removed 7044 invariants using Boogaloo
Removed 2315 invariants using Boogie
Removed 7673 invariants because of redundancies using Boogie
Writing the annotated program to /Users/timon/Education/masterthesis/benchmark/input/../output/annotated_binary_search.bpl

real	27m32.790s
user	50m16.525s
sys	15m47.915s