time python3 runBenchmark.py square_easy_v2.bpl
Copying configfile for square_easy_v2.bpl
Calling invariantFinder on square_easy_v2.bpl

Reading the Boogie program from /Users/timon/Education/masterthesis/benchmark/input/square_easy_v2.bpl
Annotating the Boogie program with invariants.

Found procedure square
Generated 16 invariants from templates
Generated 64 invariants from post-conditions
Adding invariants 80/80
Implementation of square verified completely

Procedure square verified completely with added invariants
Checking verfied invariants for redundancies

Generated 80 invariants
Generated 16 invariants from templates
Generated 64 invariants from post-condition mutation
Removed 0 invariants using Boogaloo
Removed 66 invariants using Boogie
Removed 10 invariants because of redundancies using Boogie
Writing the annotated program to /Users/timon/Education/masterthesis/benchmark/input/../output/annotated_square_easy_v2.bpl

real	0m6.314s
user	0m10.949s
sys	0m3.867s